<?xml version="1.0" encoding="utf-8"?>
<!-- Generator: Adobe Illustrator 16.0.0, SVG Export Plug-In . SVG Version: 6.00 Build 0)  -->
<!DOCTYPE svg PUBLIC "-//W3C//DTD SVG 1.1//EN" "http://www.w3.org/Graphics/SVG/1.1/DTD/svg11.dtd">
<svg version="1.1" id="Layer_1" xmlns="http://www.w3.org/2000/svg" xmlns:xlink="http://www.w3.org/1999/xlink" x="0px" y="0px"
	 width="79.92px" height="65px" viewBox="0 0 79.92 65" enable-background="new 0 0 79.92 65" xml:space="preserve">
<path d="M2.514,25.918C0.354,33.637,0.303,42.047,2.373,49c2.293,7.704,7.012,12.914,13.289,14.672
	c1.578,0.442,3.207,0.664,4.836,0.664c8,0,15.094-5.386,17.25-13.097c2.66-9.517-2.914-19.426-12.434-22.09
	c-4.219-1.176-8.879-0.727-12.781,1.207c0.125-0.527,0.254-1.031,0.391-1.527c3.48-12.438,10.305-18.036,14.039-18.036l0.164,0.004
	c0.719,0.032,1.41-0.453,1.609-1.168l2.074-7.414c0.121-0.433,0.051-0.902-0.188-1.285c-0.242-0.379-0.633-0.641-1.078-0.719
	C28.756,0.071,27.947,0,27.139,0C17.068,0,6.713,10.903,2.514,25.918L2.514,25.918z M2.514,25.918"/>
<path d="M68.65,0c-10.074,0-20.43,10.903-24.633,25.918C41.861,33.637,41.811,42.047,43.877,49
	c2.297,7.704,7.016,12.914,13.289,14.672c1.582,0.442,3.211,0.664,4.84,0.664c8,0,15.094-5.386,17.25-13.097
	c2.66-9.517-2.914-19.426-12.434-22.09c-4.219-1.176-8.875-0.727-12.785,1.207c0.125-0.524,0.258-1.027,0.395-1.527
	c3.48-12.438,10.305-18.036,14.039-18.036l0.164,0.004c0.73,0.032,1.406-0.453,1.609-1.168l2.074-7.414
	c0.121-0.433,0.051-0.902-0.188-1.285c-0.242-0.379-0.633-0.644-1.078-0.719C70.264,0.071,69.455,0,68.65,0L68.65,0z M68.65,0"/>
<rect x="102.92" fill="none" width="79.92" height="65"/>
</svg>
